[
  {
    "user_agent": "Pulse/4.0.5 (iPhone; iOS 7.0.6; Scale/2.00)",
    "os": {
      "name": "iOS",
      "version": "7.0.6",
      "platform": ""
    },
    "client": {
      "type": "mobile app",
      "name": "Pulse",
      "version": "4.0.5"
    },
    "device": {
      "type": "smartphone",
      "brand": "Apple",
      "model": "iPhone"
    },
    "os_family": "iOS",
    "browser_family": "Unknown"
  },
  {
    "user_agent": "WhatsApp/2.6.4 iPhone_OS/4.3.3 Device/iPhone_4",
    "os": {
      "name": "iOS",
      "version": "4.3.3",
      "platform": ""
    },
    "client": {
      "type": "mobile app",
      "name": "WhatsApp",
      "version": "2.6.4"
    },
    "device": {
      "type": "smartphone",
      "brand": "Apple",
      "model": "iPhone"
    },
    "os_family": "iOS",
    "browser_family": "Unknown"
  },
  {
    "user_agent": "AndroidDownloadManager/4.1.1 (Linux; U; Android 4.1.1; MB886 Build/9.8.0Q-97_MB886_FFW-20)",
    "os": {
      "name": "Android",
      "version": "4.1.1",
      "platform": ""
    },
    "client": {
      "type": "mobile app",
      "name": "AndroidDownloadManager",
      "version": "4.1.1"
    },
    "device": {
      "type": "smartphone",
      "brand": "Motorola",
      "model": "MB886"
    },
    "os_family": "Android",
    "browser_family": "Unknown"
  },
  {
    "user_agent": "com.google.android.youtube/2.4.4(Linux; U; Android 2.3.5; en_US; SCH-I500 Build/GINGERBREAD) gzip",
    "os": {
      "name": "Android",
      "version": "2.3.5",
      "platform": ""
    },
    "client": {
      "type": "mobile app",
      "name": "YouTube",
      "version": "2.4.4"
    },
    "device": {
      "type": "smartphone",
      "brand": "Samsung",
      "model": "SCH-I500"
    },
    "os_family": "Android",
    "browser_family": "Unknown"
  },
  {
    "user_agent": "NS/3.3.1 (Linux; U; Android 5.0.1; en-in; phone/Nexus 5 Build/LRX22C; Density/480; gzip) com.google.android.apps.magazines/2014102707",
    "os": {
      "name": "Android",
      "version": "5.0.1",
      "platform": ""
    },
    "client": {
      "type": "mobile app",
      "name": "Google Play Newsstand",
      "version": ""
    },
    "device": {
      "type": "smartphone",
      "brand": "Google",
      "model": "Nexus 5"
    },
    "os_family": "Android",
    "browser_family": "Unknown"
  },
  {
    "user_agent": "Mozilla/5.0 (iPad3,6; iPad; U; CPU OS 7_1 like Mac OS X; en_US) com.google.GooglePlus/33839 (KHTML, like Gecko) Mobile/P103AP (gzip)",
    "os": {
      "name": "iOS",
      "version": "7.1",
      "platform": ""
    },
    "client": {
      "type": "mobile app",
      "name": "Google Plus",
      "version": ""
    },
    "device": {
      "type": "tablet",
      "brand": "Apple",
      "model": "iPad 4"
    },
    "os_family": "iOS",
    "browser_family": "Unknown"
  },
  {
    "user_agent": "Mozilla/5.0 (iPhone; CPU iPhone OS 10_3_3 like Mac OS X) AppleWebKit/603.3.8 (KHTML, like Gecko) Mobile/14G60 [FBAN/MessengerForiOS;FBAV/132.0.0.41.90;FBBV/69171754;FBDV/iPhone8,4;FBMD/iPhone;FBSN/iOS;FBSV/10.3.3;FBSS/2;FBCR/Koodo;FBID/phone;FBLC/en_US;FBOP/5;FBRV/0]",
    "os": {
      "name": "iOS",
      "version": "10.3.3",
      "platform": ""
    },
    "client": {
      "type": "mobile app",
      "name": "Facebook Messenger",
      "version": "132.0.0.41.90"
    },
    "device": {
      "type": "smartphone",
      "brand": "Apple",
      "model": "iPhone SE"
    },
    "os_family": "iOS",
    "browser_family": "Unknown"
  },
  {
    "user_agent": "Mozilla/5.0 (iPad; CPU OS 10_1_1 like Mac OS X) AppleWebKit/602.2.14 (KHTML, like Gecko) Mobile/14B100 [FBAN/MessengerForiOS;FBAV/122.0.0.40.69;FBBV/61279955;FBDV/iPad4,1;FBMD/iPad;FBSN/iOS;FBSV/10.1.1;FBSS/2;FBCR/;FBID/tablet;FBLC/vi_VN;FBOP/5;FBRV/0]",
    "os": {
      "name": "iOS",
      "version": "10.1.1",
      "platform": ""
    },
    "client": {
      "type": "mobile app",
      "name": "Facebook Messenger",
      "version": "122.0.0.40.69"
    },
    "device": {
      "type": "tablet",
      "brand": "Apple",
      "model": "iPad Air"
    },
    "os_family": "iOS",
    "browser_family": "Unknown"
  },
  {
    "user_agent": "Mozilla/5.0 (Linux; Android 7.1.2; Nexus 5X Build/N2G47F; wv) AppleWebKit/537.36 (KHTML, like Gecko) Version/4.0 Chrome/57.0.2987.132 Mobile Safari/537.36 [FB_IAB/MESSENGER;FBAV/114.0.0.21.71;]",
    "os": {
      "name": "Android",
      "version": "7.1.2",
      "platform": ""
    },
    "client": {
      "type": "mobile app",
      "name": "Facebook Messenger",
      "version": "114.0.0.21.71"
    },
    "device": {
      "type": "smartphone",
      "brand": "Google",
      "model": "Nexus 5X"
    },
    "os_family": "Android",
    "browser_family": "Unknown"
  },
  {
    "user_agent": "Mozilla/5.0 (Linux; Android 5.1.1; SM-T280 Build/LMY47V; wv) AppleWebKit/537.36 (KHTML, like Gecko) Version/4.0 Chrome/57.0.2987.132 Safari/537.36 [FB_IAB/MESSENGER;FBAV/112.0.0.17.70;]",
    "os": {
      "name": "Android",
      "version": "5.1.1",
      "platform": ""
    },
    "client": {
      "type": "mobile app",
      "name": "Facebook Messenger",
      "version": "112.0.0.17.70"
    },
    "device": {
      "type": "tablet",
      "brand": "Samsung",
      "model": "Galaxy Tab A 7.0\" WiFi"
    },
    "os_family": "Android",
    "browser_family": "Unknown"
  },
  {
    "user_agent": "[FBAN/FB4A;FBAV/26.0.0.22.16;FBBV/6590638;FBDM/{density=1.5,width=791,height=480};FBLC/en_US;FBCR/SmarTone HK;FBMF/Sony;FBBD/Sony;FBPN/com.facebook.katana;FBDV/C1905;FBSV/4.1.2;FBOP/19;FBCA/armeabi-v7a:armeabi;]",
    "os": {
      "name": "Android",
      "version": "4.1.2",
      "platform": "ARM"
    },
    "client": {
      "type": "mobile app",
      "name": "Facebook",
      "version": "26.0.0.22.16"
    },
    "device": {
      "type": "smartphone",
      "brand": "Sony",
      "model": "Xperia M"
    },
    "os_family": "Android",
    "browser_family": "Unknown"
  },
  {
    "user_agent": "Mozilla/5.0 (iPhone; CPU iPhone OS 8_2 like Mac OS X) AppleWebKit/600.1.4 (KHTML, like Gecko) Mobile/12D508 Safari Line/5.9.5",
    "os": {
      "name": "iOS",
      "version": "8.2",
      "platform": ""
    },
    "client": {
      "type": "mobile app",
      "name": "Line",
      "version": "5.9.5"
    },
    "device": {
      "type": "smartphone",
      "brand": "Apple",
      "model": "iPhone"
    },
    "os_family": "iOS",
    "browser_family": "Unknown"
  },
  {
    "user_agent": "Mozilla/5.0 (iPhone; CPU iPhone OS 9_2_1 like Mac OS X) AppleWebKit/601.1.46 (KHTML, like Gecko) Mobile/13D15 Safari Line/5.10.0",
    "os": {
      "name": "iOS",
      "version": "9.2.1",
      "platform": ""
    },
    "client": {
      "type": "mobile app",
      "name": "Line",
      "version": "5.10.0"
    },
    "device": {
      "type": "smartphone",
      "brand": "Apple",
      "model": "iPhone"
    },
    "os_family": "iOS",
    "browser_family": "Unknown"
  },
  {
    "user_agent": "Podcat/8577 CFNetwork/711.3.18 Darwin/14.0.0",
    "os": {
      "name": "iOS",
      "version": "8.3",
      "platform": ""
    },
    "client": {
      "type": "mobile app",
      "name": "Podcat",
      "version": "8577"
    },
    "device": {
      "type": "",
      "brand": "Apple",
      "model": ""
    },
    "os_family": "iOS",
    "browser_family": "Unknown"
  },
  {
    "user_agent": "Podcat%202/22296 CFNetwork/1121.2.2 Darwin/19.2.0",
    "os": {
      "name": "iOS",
      "version": "13.3",
      "platform": ""
    },
    "client": {
      "type": "mobile app",
      "name": "Podcat",
      "version": "22296"
    },
    "device": {
      "type": "",
      "brand": "Apple",
      "model": ""
    },
    "os_family": "iOS",
    "browser_family": "Unknown"
  },
  {
    "user_agent": "Podcat/1.1.4.14639 (iPhone; de-DE; iPhone OS 9.2.1)",
    "os": {
      "name": "iOS",
      "version": "9.2.1",
      "platform": ""
    },
    "client": {
      "type": "mobile app",
      "name": "Podcat",
      "version": "1.1.4.14639"
    },
    "device": {
      "type": "smartphone",
      "brand": "Apple",
      "model": "iPhone"
    },
    "os_family": "iOS",
    "browser_family": "Unknown"
  },
  {
    "user_agent": "PodcastRepublic/18.0 (Linux; U; Android 8.0.0;OnePlus3T/OPR1.170623.032)",
    "os": {
      "name": "Android",
      "version": "8.0.0",
      "platform": ""
    },
    "client": {
      "type": "mobile app",
      "name": "Podcast Republic",
      "version": "18.0"
    },
    "device": {
      "type": "smartphone",
      "brand": "OnePlus",
      "model": "3T"
    },
    "os_family": "Android",
    "browser_family": "Unknown"
  },
  {
    "user_agent": "PodcastAddict/v2 - Dalvik/2.1.0 (Linux; U; Android 6.0; FEVER Build/MRA58K)",
    "os": {
      "name": "Android",
      "version": "6.0",
      "platform": ""
    },
    "client": {
      "type": "mobile app",
      "name": "Podcast & Radio Addict",
      "version": "2"
    },
    "device": {
      "type": "smartphone",
      "brand": "Wiko",
      "model": "Fever"
    },
    "os_family": "Android",
    "browser_family": "Unknown"
  },
  {
    "user_agent": "Podcatcher Deluxe",
    "os": {
      "name": "Android",
      "version": "",
      "platform": ""
    },
    "client": {
      "type": "mobile app",
      "name": "Podcatcher Deluxe",
      "version": ""
    },
    "device": {
      "type": "",
      "brand": "",
      "model": ""
    },
    "os_family": "Android",
    "browser_family": "Unknown"
  },
  {
    "user_agent": "iCatcher! Podcast Player/2.6.2",
    "os": {
      "name": "iOS",
      "version": "",
      "platform": ""
    },
    "client": {
      "type": "mobile app",
      "name": "iCatcher",
      "version": "2.6.2"
    },
    "device": {
      "type": "",
      "brand": "Apple",
      "model": ""
    },
    "os_family": "iOS",
    "browser_family": "Unknown"
  },
  {
    "user_agent": "icatcher/4535 CFNetwork/672.1.14 Darwin/14.0.0",
    "os": {
      "name": "iOS",
      "version": "7.1",
      "platform": ""
    },
    "client": {
      "type": "mobile app",
      "name": "iCatcher",
      "version": "4535"
    },
    "device": {
      "type": "",
      "brand": "Apple",
      "model": ""
    },
    "os_family": "iOS",
    "browser_family": "Unknown"
  },
  {
    "user_agent": "Castro 2 Episode Download",
    "os": {
      "name": "iOS",
      "version": "",
      "platform": ""
    },
    "client": {
      "type": "mobile app",
      "name": "Castro 2",
      "version": ""
    },
    "device": {
      "type": "",
      "brand": "Apple",
      "model": ""
    },
    "os_family": "iOS",
    "browser_family": "Unknown"
  },
  {
    "user_agent": "Castro 2 2.1.2/646 Like iTunes",
    "os": {
      "name": "iOS",
      "version": "",
      "platform": ""
    },
    "client": {
      "type": "mobile app",
      "name": "Castro 2",
      "version": "2.1.2"
    },
    "device": {
      "type": "",
      "brand": "Apple",
      "model": ""
    },
    "os_family": "iOS",
    "browser_family": "Unknown"
  },
  {
    "user_agent": "Player FM",
    "os": {
      "name": "Android",
      "version": "",
      "platform": ""
    },
    "client": {
      "type": "mobile app",
      "name": "Player FM",
      "version": ""
    },
    "device": {
      "type": "",
      "brand": "",
      "model": ""
    },
    "os_family": "Android",
    "browser_family": "Unknown"
  },
  {
    "user_agent": "okhttp/2.7.5",
    "os": {
      "name": "Android",
      "version": "",
      "platform": ""
    },
    "client": {
      "type": "library",
      "name": "OkHttp",
      "version": "2.7.5"
    },
    "device": {
      "type": "",
      "brand": "",
      "model": ""
    },
    "os_family": "Android",
    "browser_family": "Unknown"
  },
  {
    "user_agent": "Mozilla/5.0 (iPhone; CPU iPhone OS 10_0 like Mac OS X) AppleWebKit/602.1.50 (KHTML, like Gecko) News/582.1 Version/2.0",
    "os": {
      "name": "iOS",
      "version": "10.0",
      "platform": ""
    },
    "client": {
      "type": "mobile app",
      "name": "Apple News",
      "version": "2.0"
    },
    "device": {
      "type": "smartphone",
      "brand": "Apple",
      "model": "iPhone"
    },
    "os_family": "iOS",
    "browser_family": "Unknown"
  },
  {
    "user_agent": "Mozilla/5.0 (iPhone; CPU iPhone OS 10_0 like Mac OS X) AppleWebKit/602.1.43 (KHTML, like Gecko) AppleNews/607 Version/2.0",
    "os": {
      "name": "iOS",
      "version": "10.0",
      "platform": ""
    },
    "client": {
      "type": "mobile app",
      "name": "Apple News",
      "version": "2.0"
    },
    "device": {
      "type": "smartphone",
      "brand": "Apple",
      "model": "iPhone"
    },
    "os_family": "iOS",
    "browser_family": "Unknown"
  },
  {
    "user_agent": "YelpWebView/1.5 Android/7.0 YelpApp/9.10.0 (x-screen-scale 1.0;)",
    "os": {
      "name": "Android",
      "version": "7.0",
      "platform": ""
    },
    "client": {
      "type": "mobile app",
      "name": "Yelp Mobile",
      "version": "9.10.0"
    },
    "device": {
      "type": "",
      "brand": "",
      "model": ""
    },
    "os_family": "Android",
    "browser_family": "Unknown"
  },
  {
    "user_agent": "com.google.android.apps.searchlite/101032 (Linux; U; Android 8.1.0; ru_RU; M580; Build/O11019; Cronet/74.0.3729.182)",
    "os": {
      "name": "Android",
      "version": "8.1.0",
      "platform": ""
    },
    "client": {
      "type": "mobile app",
      "name": "Google Go",
      "version": ""
    },
    "device": {
      "type": "",
      "brand": "",
      "model": ""
    },
    "os_family": "Android",
    "browser_family": "Unknown"
  },
  {
    "user_agent": "CastBox/4.8.1 (fm.castbox.audiobook.radio.podcast; build:2; iOS 11.2.5)",
    "os": {
      "name": "iOS",
      "version": "11.2.5",
      "platform": ""
    },
    "client": {
      "type": "mobile app",
      "name": "CastBox",
      "version": "4.8.1"
    },
    "device": {
      "type": "",
      "brand": "Apple",
      "model": ""
    },
    "os_family": "iOS",
    "browser_family": "Unknown"
  },
  {
    "user_agent": "Mozilla/5.0 (Android OS 5.1 / API-22 (HUAWEITIT-U02/C579B105); HUAWEI HUAWEI TIT-U02) AppleWebKit/537.36 (KHTML, like Gecko) Chrome/76.0.3809.89 Mobile Safari/537.36 UnityPlayer/2017.4.34f1",
    "os": {
      "name": "Android",
      "version": "5.1",
      "platform": ""
    },
    "client": {
      "type": "mobile app",
      "name": "UnityPlayer",
      "version": "2017.4.34"
    },
    "device": {
      "type": "smartphone",
      "brand": "Huawei",
      "model": "Y6 Pro"
    },
    "os_family": "Android",
    "browser_family": "Unknown"
  },
  {
    "user_agent": "Mozilla/5.0 (Linux; Android 10; SM-T515 Build/QP1A.190711.020; wv) AppleWebKit/537.36 (KHTML, like Gecko) Version/4.0 Chrome/84.0.4147.125 Safari/537.36 UCURSOS/v1.6_244-android",
    "os": {
      "name": "Android",
      "version": "10",
      "platform": ""
    },
    "client": {
      "type": "mobile app",
      "name": "U-Cursos",
      "version": "1.6"
    },
    "device": {
      "type": "tablet",
      "brand": "Samsung",
      "model": "Galaxy Tab A 10.1\" (2019)"
    },
    "os_family": "Android",
    "browser_family": "Unknown"
  },
  {
    "user_agent": "Mozilla/5.0 (Linux; U; Android 10; zh-cn; PDEM10 Build/QKQ1.191222.002) AppleWebKit/537.36 (KHTML, like Gecko) Version/4.0 Chrome/70.0.3538.80 Mobile Safari/537.36 HeyTapBrowser/40.7.4.1",
    "os": {
      "name": "Android",
      "version": "10",
      "platform": ""
    },
    "client": {
      "type": "mobile app",
      "name": "HeyTapBrowser",
      "version": "40.7.4.1"
    },
    "device": {
      "type": "smartphone",
      "brand": "OPPO",
      "model": "Find X2"
    },
    "os_family": "Android",
    "browser_family": "Unknown"
  },
  {
    "user_agent": "Mozilla/5.0 (2822MB; 720x1411; 320x319; 411x806; Samsung SM-A115F; 10) AppleWebKit/537.36 (KHTML, like Gecko)  ROBLOX Android App 2.448.411159 Phone Hybrid()  GooglePlayStore RobloxApp/2.448.411159 (GlobalDist; GooglePlayStore)",
    "os": {
      "name": "Android",
      "version": "10",
      "platform": ""
    },
    "client": {
      "type": "mobile app",
      "name": "Roblox",
      "version": "2.448.411159"
    },
    "device": {
      "type": "smartphone",
      "brand": "Samsung",
      "model": "Galaxy A11"
    },
    "os_family": "Android",
    "browser_family": "Unknown"
  },
  {
    "user_agent": "Mozilla/5.0 (iPhone; iPhone12,1; CPU iPhone OS 14.0 like Mac OS X) AppleWebKit/534.46 (KHTML, like Gecko) Mobile/9B176 ROBLOX iOS App 2.448.411159 Hybrid RobloxApp/2.448.411159 (GlobalDist; AppleAppStore)",
    "os": {
      "name": "iOS",
      "version": "14.0",
      "platform": ""
    },
    "client": {
      "type": "mobile app",
      "name": "Roblox",
      "version": "2.448.411159"
    },
    "device": {
      "type": "smartphone",
      "brand": "Apple",
      "model": "iPhone 11"
    },
    "os_family": "iOS",
    "browser_family": "Unknown"
  },
  {
    "user_agent": "com.google.android.apps.searchlite/57825 (Linux; U; Android 8.1.0; ru_RU; INOI_5i_Lite; Build/O11019; Cronet/80.0.3987.149)",
    "os": {
      "name": "Android",
      "version": "8.1.0",
      "platform": ""
    },
    "client": {
      "type": "mobile app",
      "name": "Google Go",
      "version": ""
    },
    "device": {
      "type": "smartphone",
      "brand": "Inoi",
      "model": "5i Lite"
    },
    "os_family": "Android",
    "browser_family": "Unknown"
  },
  {
    "user_agent": "ProCast/2 CFNetwork/978.0.7 Darwin/18.7.0",
    "os": {
      "name": "iOS",
      "version": "12.4",
      "platform": ""
    },
    "client": {
      "type": "mobile app",
      "name": "Procast",
      "version": "2"
    },
    "device": {
      "type": "",
      "brand": "Apple",
      "model": ""
    },
    "os_family": "iOS",
    "browser_family": "Unknown"
  },
  {
    "user_agent": "Procast (iOS)",
    "os": {
      "name": "iOS",
      "version": "",
      "platform": ""
    },
    "client": {
      "type": "mobile app",
      "name": "Procast",
      "version": ""
    },
    "device": {
      "type": "",
      "brand": "Apple",
      "model": ""
    },
    "os_family": "iOS",
    "browser_family": "Unknown"
  },
  {
    "user_agent": "LightSpeed [FBAN/MessengerLiteForiOS;FBAV/255.0.0.30.124;FBBV/ 202164847;FBDV/iPhone10,4;FBMD/iPhone;FBSN/iOS;FBSV/ 13.3.1;FBSS/2;FBCR/;FBID/phone;FBLC/en_US;FBOP/0]",
    "os": {
      "name": "iOS",
      "version": "13.3.1",
      "platform": ""
    },
    "client": {
      "type": "mobile app",
      "name": "Facebook Messenger Lite",
      "version": "255.0.0.30.124"
    },
    "device": {
      "type": "smartphone",
      "brand": "Apple",
      "model": "iPhone 8"
    },
    "os_family": "iOS",
    "browser_family": "Unknown"
  },
  {
    "user_agent": "TikTok/131012 CFNetwork/978.0.7 Darwin/18.7.0",
    "os": {
      "name": "iOS",
      "version": "12.4",
      "platform": ""
    },
    "client": {
      "type": "mobile app",
      "name": "TikTok",
      "version": ""
    },
    "device": {
      "type": "",
      "brand": "Apple",
      "model": ""
    },
    "os_family": "iOS",
    "browser_family": "Unknown"
  },
  {
    "user_agent": "RoboForm/337.01 CFNetwork/711.1.16 Darwin/14.0.0",
    "os": {
      "name": "iOS",
      "version": "8.1",
      "platform": ""
    },
    "client": {
      "type": "mobile app",
      "name": "RoboForm",
      "version": ""
    },
    "device": {
      "type": "",
      "brand": "Apple",
      "model": ""
    },
    "os_family": "iOS",
    "browser_family": "Unknown"
  },
  {
    "user_agent": "NAVER/10.2.3.1 CFNetwork/976 Darwin/18.2.0",
    "os": {
      "name": "iOS",
      "version": "12.1",
      "platform": ""
    },
    "client": {
      "type": "mobile app",
      "name": "Naver",
      "version": "10.2.3.1"
    },
    "device": {
      "type": "",
      "brand": "Apple",
      "model": ""
    },
    "os_family": "iOS",
    "browser_family": "Unknown"
  },
  {
    "user_agent": "Papers/2.2.19 CFNetwork/902.3.1 Darwin/17.7.0 (x86_64)",
    "os": {
      "name": "Mac",
      "version": "10.13.6",
      "platform": "x64"
    },
    "client": {
      "type": "mobile app",
      "name": "Papers",
      "version": "2.2.19"
    },
    "device": {
      "type": "desktop",
      "brand": "Apple",
      "model": ""
    },
    "os_family": "Mac",
    "browser_family": "Unknown"
  },
  {
    "user_agent": "Copied/336 CFNetwork/893.13.1 Darwin/17.4.0 (x86_64)",
    "os": {
      "name": "Mac",
      "version": "10.13.3",
      "platform": "x64"
    },
    "client": {
      "type": "mobile app",
      "name": "Copied",
      "version": ""
    },
    "device": {
      "type": "desktop",
      "brand": "Apple",
      "model": ""
    },
    "os_family": "Mac",
    "browser_family": "Unknown"
  },
  {
    "user_agent": "Pic%20Collage/7.31.14 CFNetwork/889.9 Darwin/17.2.0",
    "os": {
      "name": "iOS",
      "version": "11.1",
      "platform": ""
    },
    "client": {
      "type": "mobile app",
      "name": "Pic Collage",
      "version": "7.31.14"
    },
    "device": {
      "type": "",
      "brand": "Apple",
      "model": ""
    },
    "os_family": "iOS",
    "browser_family": "Unknown"
  },
  {
    "user_agent": "Pinterest for iOS/7.11 (iPhone7,2; 12.1.4)",
    "os": {
      "name": "iOS",
      "version": "12.1.4",
      "platform": ""
    },
    "client": {
      "type": "mobile app",
      "name": "Pinterest",
      "version": "7.11"
    },
    "device": {
      "type": "smartphone",
      "brand": "Apple",
      "model": "iPhone 6"
    },
    "os_family": "iOS",
    "browser_family": "Unknown"
  },
  {
    "user_agent": "Slack/396839 CFNetwork/889.9 Darwin/17.2.0",
    "os": {
      "name": "iOS",
      "version": "11.1",
      "platform": ""
    },
    "client": {
      "type": "mobile app",
      "name": "Slack",
      "version": ""
    },
    "device": {
      "type": "",
      "brand": "Apple",
      "model": ""
    },
    "os_family": "iOS",
    "browser_family": "Unknown"
  },
  {
    "user_agent": "Pinterest for Android/9.0.4 (K83CA; 9)",
    "os": {
      "name": "Android",
      "version": "9",
      "platform": ""
    },
    "client": {
      "type": "mobile app",
      "name": "Pinterest",
      "version": "9.0.4"
    },
    "device": {
      "type": "tablet",
      "brand": "ZTE",
      "model": "Grand X View 3"
    },
    "os_family": "Android",
    "browser_family": "Unknown"
  },
  {
    "user_agent": "Mozilla/5.0 (iPhone; CPU iPhone OS 13_3 like Mac OS X) AppleWebKit/605.1.15 (KHTML, like Gecko) Mobile/15E148 KAKAOTALK 8.6.3",
    "os": {
      "name": "iOS",
      "version": "13.3",
      "platform": ""
    },
    "client": {
      "type": "mobile app",
      "name": "KakaoTalk",
      "version": "8.6.3"
    },
    "device": {
      "type": "smartphone",
      "brand": "Apple",
      "model": "iPhone"
    },
    "os_family": "iOS",
    "browser_family": "Unknown"
  },
  {
    "user_agent": "TikTok 17.8.1 rv:178102 (iPhone; iOS 14.1; ja_JP) Cronet",
    "os": {
      "name": "iOS",
      "version": "14.1",
      "platform": ""
    },
    "client": {
      "type": "mobile app",
      "name": "TikTok",
      "version": "17.8.1"
    },
    "device": {
      "type": "smartphone",
      "brand": "Apple",
      "model": "iPhone"
    },
    "os_family": "iOS",
    "browser_family": "Unknown"
  },
  {
    "user_agent": "Podbean/Android App 8.3.2 (http://podbean.com)",
    "os": {
      "name": "Android",
      "version": "",
      "platform": ""
    },
    "client": {
      "type": "mobile app",
      "name": "Podbean",
      "version": "8.3.2"
    },
    "device": {
      "type": "",
      "brand": "",
      "model": ""
    },
    "os_family": "Android",
    "browser_family": "Unknown"
  },
  {
    "user_agent": "AlexaMediaPlayer/2.0.201528.0 (Linux;Android 5.1.1) ExoPlayerLib/1.5.9",
    "os": {
      "name": "Android",
      "version": "5.1.1",
      "platform": ""
    },
    "client": {
      "type": "mobile app",
      "name": "Alexa Media Player",
      "version": "2.0.201528.0"
    },
    "device": {
      "type": "smart speaker",
      "brand": "Amazon",
      "model": "Alexa"
    },
    "os_family": "Android",
    "browser_family": "Unknown"
  },
  {
    "user_agent": "TuneIn Radio Pro/25.7.3 (Linux;Android 5.0) ExoPlayerLib/2.11.8",
    "os": {
      "name": "Android",
      "version": "5.0",
      "platform": ""
    },
    "client": {
      "type": "mobile app",
      "name": "TuneIn Radio Pro",
      "version": "25.7.3"
    },
    "device": {
      "type": "",
      "brand": "",
      "model": ""
    },
    "os_family": "Android",
    "browser_family": "Unknown"
  },
  {
    "user_agent": "TuneIn Radio Pro By Farsroid.com/25.7.3 (Linux;Android 10) ExoPlayerLib/2.11.8",
    "os": {
      "name": "Android",
      "version": "10",
      "platform": ""
    },
    "client": {
      "type": "mobile app",
      "name": "TuneIn Radio Pro",
      "version": "25.7.3"
    },
    "device": {
      "type": "",
      "brand": "",
      "model": ""
    },
    "os_family": "Android",
    "browser_family": "Unknown"
  },
  {
    "user_agent": "TuneIn Radio/25.7.3 (Linux;Android 7.1.1) ExoPlayerLib/2.11.8,gzip(gfe)",
    "os": {
      "name": "Android",
      "version": "7.1.1",
      "platform": ""
    },
    "client": {
      "type": "mobile app",
      "name": "TuneIn Radio",
      "version": "25.7.3"
    },
    "device": {
      "type": "",
      "brand": "",
      "model": ""
    },
    "os_family": "Android",
    "browser_family": "Unknown"
  },
  {
    "user_agent": "Podcaster/1.0.0 (Linux;Android 9) ExoPlayerLib/2.9.6",
    "os": {
      "name": "Android",
      "version": "9",
      "platform": ""
    },
    "client": {
      "type": "mobile app",
      "name": "Podcaster",
      "version": "1.0.0"
    },
    "device": {
      "type": "",
      "brand": "",
      "model": ""
    },
    "os_family": "Android",
    "browser_family": "Unknown"
  },
  {
    "user_agent": "Swoot/1.76.0 (Linux;Android 10) ExoPlayerLib/2.9.6",
    "os": {
      "name": "Android",
      "version": "10",
      "platform": ""
    },
    "client": {
      "type": "mobile app",
      "name": "Swoot",
      "version": "1.76.0"
    },
    "device": {
      "type": "",
      "brand": "",
      "model": ""
    },
    "os_family": "Android",
    "browser_family": "Unknown"
  },
  {
    "user_agent": "Podimo/1.20.1 build 148/Android 29",
    "os": {
      "name": "Android",
      "version": "",
      "platform": ""
    },
    "client": {
      "type": "mobile app",
      "name": "Podimo",
      "version": "1.20.1"
    },
    "device": {
      "type": "",
      "brand": "",
      "model": ""
    },
    "os_family": "Android",
    "browser_family": "Unknown"
  },
  {
    "user_agent": "com.evolve.podcast/3.18.0 (iPad; ) (build 1901, iOS 12.4.4)",
    "os": {
      "name": "iOS",
      "version": "12.4.4",
      "platform": ""
    },
    "client": {
      "type": "mobile app",
      "name": "Evolve Podcast",
      "version": "3.18.0"
    },
    "device": {
      "type": "tablet",
      "brand": "Apple",
      "model": "iPad"
    },
    "os_family": "iOS",
    "browser_family": "Unknown"
  },
  {
    "user_agent": "com.evolve.podcast/3.18.0 (iPhone; ) (build 1901, iOS 13.3.1)",
    "os": {
      "name": "iOS",
      "version": "13.3.1",
      "platform": ""
    },
    "client": {
      "type": "mobile app",
      "name": "Evolve Podcast",
      "version": "3.18.0"
    },
    "device": {
      "type": "smartphone",
      "brand": "Apple",
      "model": "iPhone"
    },
    "os_family": "iOS",
    "browser_family": "Unknown"
  },
  {
    "user_agent": "RadioPublic/android-2.2",
    "os": {
      "name": "Android",
      "version": "",
      "platform": ""
    },
    "client": {
      "type": "mobile app",
      "name": "RadioPublic",
      "version": "2.2"
    },
    "device": {
      "type": "",
      "brand": "",
      "model": ""
    },
    "os_family": "Android",
    "browser_family": "Unknown"
  },
  {
    "user_agent": "Monazilla/1.00 2chMate/0.8.10.10 Dalvik/2.1.0 (Linux; U; Android 5.0.2; LGT01 Build/LRX22G)",
    "os": {
      "name": "Android",
      "version": "5.0.2",
      "platform": ""
    },
    "client": {
      "type": "mobile app",
      "name": "ChMate",
      "version": "0.8.10.10"
    },
    "device": {
      "type": "tablet",
      "brand": "LG",
      "model": "G Pad 8.0\" LTE"
    },
    "os_family": "Android",
    "browser_family": "Unknown"
  },
  {
    "user_agent": "Monazilla/1.00 2tch/6.6.3 iOS11.40 iPhone7,2",
    "os": {
      "name": "iOS",
      "version": "11.4",
      "platform": ""
    },
    "client": {
      "type": "mobile app",
      "name": "2tch",
      "version": "6.6.3"
    },
    "device": {
      "type": "smartphone",
      "brand": "Apple",
      "model": "iPhone 6"
    },
    "os_family": "iOS",
    "browser_family": "Unknown"
  },
  {
    "user_agent": "Monazilla/1.00 Ciisaa/1.55 Dalvik/2.1.0 (Linux; U; Android 6.0.1; Nexus 7)",
    "os": {
      "name": "Android",
      "version": "6.0.1",
      "platform": ""
    },
    "client": {
      "type": "mobile app",
      "name": "Ciisaa",
      "version": "1.55"
    },
    "device": {
      "type": "tablet",
      "brand": "Google",
      "model": "Nexus 7"
    },
    "os_family": "Android",
    "browser_family": "Unknown"
  },
  {
    "user_agent": "Monazilla/1.00 (BB2C 1.3.83; iOS 11.4.1 iPhone10,1)",
    "os": {
      "name": "iOS",
      "version": "11.4.1",
      "platform": ""
    },
    "client": {
      "type": "mobile app",
      "name": "BB2C",
      "version": "1.3.83"
    },
    "device": {
      "type": "smartphone",
      "brand": "Apple",
      "model": "iPhone 8"
    },
    "os_family": "iOS",
    "browser_family": "Unknown"
  },
  {
    "user_agent": "Monazilla/1.0 (twinkle/8.0; iOS11.4.1; iPhone10,1)",
    "os": {
      "name": "iOS",
      "version": "11.4.1",
      "platform": ""
    },
    "client": {
      "type": "mobile app",
      "name": "twinkle",
      "version": "8.0"
    },
    "device": {
      "type": "smartphone",
      "brand": "Apple",
      "model": "iPhone 8"
    },
    "os_family": "iOS",
    "browser_family": "Unknown"
  },
  {
    "user_agent": "Monazilla/1.00 JaneStyle_iOS/1.6.2.3 iOS11.4.1 iPhone,9,1",
    "os": {
      "name": "iOS",
      "version": "11.4.1",
      "platform": ""
    },
    "client": {
      "type": "mobile app",
      "name": "JaneStyle",
      "version": "1.6.2.3"
    },
    "device": {
      "type": "smartphone",
      "brand": "Apple",
      "model": "iPhone"
    },
    "os_family": "iOS",
    "browser_family": "Unknown"
  },
  {
    "user_agent": "AndroidDownloadManager/4.1.2 (Linux; U; Android 4.1.2; MediaPad 7 Lite II Build/HuaweiMediaPad)",
    "os": {
      "name": "Android",
      "version": "4.1.2",
      "platform": ""
    },
    "client": {
      "type": "mobile app",
      "name": "AndroidDownloadManager",
      "version": "4.1.2"
    },
    "device": {
      "type": "tablet",
      "brand": "Huawei",
      "model": "MediaPad 7 Lite II"
    },
    "os_family": "Android",
    "browser_family": "Unknown"
  },
  {
    "user_agent": "Mozilla/5.0 (Linux; Android 10; JNY-LX1 Build/HUAWEIJNY-L21; wv) AppleWebKit/537.36 (KHTML, like Gecko) Version/4.0 Chrome/78.0.3904.108 Mobile Safari/537.36 BNC/1.7.0 (Android 1.39.4)",
    "os": {
      "name": "Android",
      "version": "10",
      "platform": ""
    },
    "client": {
      "type": "mobile app",
      "name": "Binance",
      "version": "1.39.4"
    },
    "device": {
      "type": "smartphone",
      "brand": "Huawei",
      "model": "P40 Lite"
    },
    "os_family": "Android",
    "browser_family": "Unknown"
  },
  {
    "user_agent": "Mozilla/5.0 (Linux; Android 8.1.0; NEOSR620 Build/O11019; wv) AppleWebKit/537.36 (KHTML, like Gecko) Version/4.0 Chrome/73.0.3683.90 Mobile Safari/537.36 Instagram 88.0.0.14.99 Android (27/8.1.0; 320dpi; 720x1404; TeslaGroup/LUMUS; NEOSR620; NEOSR620; mt6739; ru_RU; 149350058)",
    "os": {
      "name": "Android",
      "version": "8.1.0",
      "platform": ""
    },
    "client": {
      "type": "mobile app",
      "name": "Instagram App",
      "version": "88.0.0.14.99"
    },
    "device": {
      "type": "smartphone",
      "brand": "Lumus",
      "model": "Neo SR620"
    },
    "os_family": "Android",
    "browser_family": "Unknown"
  },
  {
    "user_agent": "OfferUp/3.81.2 (build: 140124316; samsung SM-J260T1 M1AJQ; Android 8.1.0; en_US)",
    "os": {
      "name": "Android",
      "version": "8.1.0",
      "platform": ""
    },
    "client": {
      "type": "mobile app",
      "name": "OfferUp",
      "version": "3.81.2"
    },
    "device": {
      "type": "smartphone",
      "brand": "Samsung",
      "model": "Galaxy J2 Core"
    },
    "os_family": "Android",
    "browser_family": "Unknown"
  },
  {
    "user_agent": "ntvmobil/5051900 CFNetwork/808.1.4 Darwin/16.1.0",
    "os": {
      "name": "iOS",
      "version": "10.1",
      "platform": ""
    },
    "client": {
      "type": "mobile app",
      "name": "NTV Mobil",
      "version": ""
    },
    "device": {
      "type": "",
      "brand": "Apple",
      "model": ""
    },
    "os_family": "iOS",
    "browser_family": "Unknown"
  },
  {
    "user_agent": "Mozilla/5.0 (iPhone; CPU iPhone OS 12_1_2 like Mac OS X) AppleWebKit/605.1.15 (KHTML, like Gecko) Mobile/16C101 LightSpeed [FBAN/MessengerLiteForiOS;FBAV/326.1.0.37.112;FBBV/311948716;FBDV/iPhone8,1;FBMD/iPhone;FBSN/iOS;FBSV/12.1.2;FBSS/2;FBCR/;FBID/phone",
    "os": {
      "name": "iOS",
      "version": "12.1.2",
      "platform": ""
    },
    "client": {
      "type": "mobile app",
      "name": "Facebook Messenger Lite",
      "version": "326.1.0.37.112"
    },
    "device": {
      "type": "smartphone",
      "brand": "Apple",
      "model": "iPhone 6s"
    },
    "os_family": "iOS",
    "browser_family": "Unknown"
  },
  {
    "user_agent": "Mozilla/5.0 (Linux; Android 9; HP Chromebook x360 11 G1 EE Build/R92-13982.69.0; wv) AppleWebKit/537.36 (KHTML, like Gecko) Version/4.0 Chrome/92.0.4515.131 Safari/537.36 trill_2022007050 JsSdk/1.0 NetType/WIFI Channel/googleplay AppName/musical_ly app_version/20.7.5 ByteLocale/en ByteFullLocale/en Region/US",
    "os": {
      "name": "Android",
      "version": "9",
      "platform": ""
    },
    "client": {
      "type": "mobile app",
      "name": "TikTok",
      "version": "20.7.5"
    },
    "device": {
      "type": "desktop",
      "brand": "HP",
      "model": "Chromebook x360 11 G1 EE"
    },
    "os_family": "Android",
    "browser_family": "Unknown"
  },
  {
    "user_agent": "Mozilla/5.0 (Linux; Android 11; 6025H_EEA Build/RP1A.200720.011; wv) AppleWebKit/537.36 (KHTML, like Gecko) Version/4.0 Chrome/91.0.4472.120 Mobile Safari/537.36 trill_2022003030 JsSdk/1.0 NetType/WIFI Channel/googleplay AppName/musical_ly app_version/20.",
    "os": {
      "name": "Android",
      "version": "11",
      "platform": ""
    },
    "client": {
      "type": "mobile app",
      "name": "TikTok",
      "version": ""
    },
    "device": {
      "type": "smartphone",
      "brand": "Alcatel",
      "model": "1S"
    },
    "os_family": "Android",
    "browser_family": "Unknown"
  },
  {
    "user_agent": "Downcast/2.9.11 (iPhone; iOS 9.2; Scale/2.00)",
    "os": {
      "name": "iOS",
      "version": "9.2",
      "platform": ""
    },
    "client": {
      "type": "mobile app",
      "name": "Downcast",
      "version": "2.9.11"
    },
    "device": {
      "type": "smartphone",
      "brand": "Apple",
      "model": "iPhone"
    },
    "os_family": "iOS",
    "browser_family": "Unknown"
  },
  {
    "user_agent": "Mozilla/5.0 (Linux; Android 10; BMH-TN10 Build/HUAWEIBMH-TN10; wv) AppleWebKit/537.36 (KHTML, like Gecko) Version/4.0 Chrome/76.0.3809.89 Mobile Safari/537.36 T7/12.23 BDOS/1.0 (HarmonyOS 2.1.0) SP-engine/2.35.0 baiduboxapp/12.23.5.10 (Baidu; P1 10) NABar/1.0",
    "os": {
      "name": "HarmonyOS",
      "version": "2.1.0",
      "platform": ""
    },
    "client": {
      "type": "mobile app",
      "name": "Baidu Box App",
      "version": "12.23.5.10"
    },
    "device": {
      "type": "smartphone",
      "brand": "Huawei",
      "model": "Honor 30"
    },
    "os_family": "Android",
    "browser_family": "Unknown"
  },
  {
    "user_agent": "Mozilla/5.0 (Windows NT 10.0; Win64; x64) AppleWebKit/537.36 (KHTML, like Gecko) GitHubDesktop/2.9.4 Chrome/87.0.4280.141 Electron/11.5.0 Safari/537.36",
    "os": {
      "name": "Windows",
      "version": "10",
      "platform": "x64"
    },
    "client": {
      "type": "mobile app",
      "name": "GitHub Desktop",
      "version": "2.9.4"
    },
    "device": {
      "type": "desktop",
      "brand": "",
      "model": ""
    },
    "os_family": "Windows",
    "browser_family": "Unknown"
  },
  {
    "user_agent": "Mozilla/5.0 (Windows NT 10.0; Win64; x64) AppleWebKit/537.36 (KHTML, like Gecko) logioptionsplus/1.0.0 Chrome/91.0.4472.164 Electron/13.2.3 Safari/537.36",
    "os": {
      "name": "Windows",
      "version": "10",
      "platform": "x64"
    },
    "client": {
      "type": "mobile app",
      "name": "Logi Options+",
      "version": "1.0.0"
    },
    "device": {
      "type": "desktop",
      "brand": "",
      "model": ""
    },
    "os_family": "Windows",
    "browser_family": "Unknown"
  },
  {
    "user_agent": "Mozilla/5.0 (Windows NT 10.0; Win64; x64) AppleWebKit/537.36 (KHTML, like Gecko) EmbyTheater/3.0.6 Chrome/69.0.3497.106 Electron/4.0.0 Safari/537.36",
    "os": {
      "name": "Windows",
      "version": "10",
      "platform": "x64"
    },
    "client": {
      "type": "mobile app",
      "name": "Emby Theater",
      "version": "3.0.6"
    },
    "device": {
      "type": "desktop",
      "brand": "",
      "model": ""
    },
    "os_family": "Windows",
    "browser_family": "Unknown"
  },
  {
    "user_agent": "Mozilla/5.0 (Windows NT 10.0; Win64; x64) AppleWebKit/537.36 (KHTML, like Gecko) y8-browser/1.0.10 Chrome/73.0.3683.121 Electron/5.0.13 Safari/537.36",
    "os": {
      "name": "Windows",
      "version": "10",
      "platform": "x64"
    },
    "client": {
      "type": "mobile app",
      "name": "Y8 Browser",
      "version": "1.0.10"
    },
    "device": {
      "type": "desktop",
      "brand": "",
      "model": ""
    },
    "os_family": "Windows",
    "browser_family": "Unknown"
  },
  {
    "user_agent": "Mozilla/5.0 (Windows NT 10.0; Win64; x64) AppleWebKit/537.36 (KHTML, like Gecko) NuMuKiBrowser/1.0.2 Chrome/87.0.4280.88 Electron/11.1.1 Safari/537.36",
    "os": {
      "name": "Windows",
      "version": "10",
      "platform": "x64"
    },
    "client": {
      "type": "mobile app",
      "name": "NuMuKi Browser",
      "version": "1.0.2"
    },
    "device": {
      "type": "desktop",
      "brand": "",
      "model": ""
    },
    "os_family": "Windows",
    "browser_family": "Unknown"
  },
  {
    "user_agent": "Mozilla/5.0 (Windows NT 10.0; Win64; x64) AppleWebKit/537.36 (KHTML, like Gecko) LandisGyrAIMbrowser/1.1.11 Chrome/83.0.4103.122 Electron/9.2.1 Safari/537.36",
    "os": {
      "name": "Windows",
      "version": "10",
      "platform": "x64"
    },
    "client": {
      "type": "mobile app",
      "name": "Landis+Gyr AIM Browser",
      "version": "1.1.11"
    },
    "device": {
      "type": "desktop",
      "brand": "",
      "model": ""
    },
    "os_family": "Windows",
    "browser_family": "Unknown"
  },
  {
    "user_agent": "Mozilla/5.0 (Windows NT 10.0; Win64; x64) AppleWebKit/537.36 (KHTML, like Gecko) Code/1.61.2 Chrome/91.0.4472.164 Electron/13.5.1 Safari/537.36",
    "os": {
      "name": "Windows",
      "version": "10",
      "platform": "x64"
    },
    "client": {
      "type": "mobile app",
      "name": "Visual Studio Code",
      "version": "1.61.2"
    },
    "device": {
      "type": "desktop",
      "brand": "",
      "model": ""
    },
    "os_family": "Windows",
    "browser_family": "Unknown"
  },
  {
    "user_agent": "Wireshark/3.4.9 WinSparkle/0.5.7 (Win64)",
    "os": {
      "name": "Windows",
      "version": "",
      "platform": "x64"
    },
    "client": {
      "type": "mobile app",
      "name": "Wireshark",
      "version": "3.4.9"
    },
    "device": {
      "type": "desktop",
      "brand": "",
      "model": ""
    },
    "os_family": "Windows",
    "browser_family": "Unknown"
  },
  {
    "user_agent": "Magician",
    "os": [],
    "client": {
      "type": "mobile app",
      "name": "Samsung Magician",
      "version": ""
    },
    "device": {
      "type": "",
      "brand": "",
      "model": ""
    },
    "os_family": "Unknown",
    "browser_family": "Unknown"
  },
  {
    "user_agent": "Razer Central PC/1.0 (Win32NT; 10.0.19043.0; Microsoft Windows NT 10.0.19043.0)",
    "os": {
      "name": "Windows",
      "version": "10",
      "platform": "x86"
    },
    "client": {
      "type": "mobile app",
      "name": "Razer Synapse",
      "version": ""
    },
    "device": {
      "type": "desktop",
      "brand": "",
      "model": ""
    },
    "os_family": "Windows",
    "browser_family": "Unknown"
  },
  {
    "user_agent": "Mozilla/5.0 (Windows NT 10.0; Win64; x64) AppleWebKit/537.36 (KHTML, like Gecko) Binance/1.26.0 Chrome/89.0.4389.128 Electron/12.0.7 Safari/537.36 (electron 1.26.0)",
    "os": {
      "name": "Windows",
      "version": "10",
      "platform": "x64"
    },
    "client": {
      "type": "mobile app",
      "name": "Binance",
      "version": "1.26.0"
    },
    "device": {
      "type": "desktop",
      "brand": "",
      "model": ""
    },
    "os_family": "Windows",
    "browser_family": "Unknown"
  },
  {
    "user_agent": "git/2.32.0.windows.2",
    "os": {
      "name": "Windows",
      "version": "",
      "platform": ""
    },
    "client": {
      "type": "mobile app",
      "name": "Git",
      "version": "2.32.0"
    },
    "device": {
      "type": "desktop",
      "brand": "",
      "model": ""
    },
    "os_family": "Windows",
    "browser_family": "Unknown"
  },
  {
    "user_agent": "GooglePodcasts/2.0.2 iPod_touch/13.4.1 hw/iPod9_1",
    "os": {
      "name": "iOS",
      "version": "13.4.1",
      "platform": ""
    },
    "client": {
      "type": "mobile app",
      "name": "Google Podcasts",
      "version": "2.0.2"
    },
    "device": {
      "type": "portable media player",
      "brand": "Apple",
      "model": "iPod Touch 7"
    },
    "os_family": "iOS",
    "browser_family": "Unknown"
  },
  {
    "user_agent": "Microsoft-CryptoAPI/10.0",
    "os": {
      "name": "Windows",
      "version": "10.0",
      "platform": ""
    },
    "client": {
      "type": "mobile app",
      "name": "Windows CryptoAPI",
      "version": ""
    },
    "device": {
      "type": "desktop",
      "brand": "",
      "model": ""
    },
    "os_family": "Windows",
    "browser_family": "Unknown"
  },
  {
    "user_agent": "Microsoft-Delivery-Optimization/10.0",
    "os": {
      "name": "Windows",
      "version": "10.0",
      "platform": ""
    },
    "client": {
      "type": "mobile app",
      "name": "Windows Delivery Optimization",
      "version": ""
    },
    "device": {
      "type": "desktop",
      "brand": "",
      "model": ""
    },
    "os_family": "Windows",
    "browser_family": "Unknown"
  },
  {
    "user_agent": "Windows-Update-Agent/10.0.10011.16384 Client-Protocol/2.32",
    "os": {
      "name": "Windows",
      "version": "10.0",
      "platform": ""
    },
    "client": {
      "type": "mobile app",
      "name": "Windows Update Agent",
      "version": ""
    },
    "device": {
      "type": "desktop",
      "brand": "",
      "model": ""
    },
    "os_family": "Windows",
    "browser_family": "Unknown"
  },
  {
    "user_agent": "MSDW",
    "os": {
      "name": "Windows",
      "version": "",
      "platform": ""
    },
    "client": {
      "type": "mobile app",
      "name": "Dr. Watson",
      "version": ""
    },
    "device": {
      "type": "desktop",
      "brand": "",
      "model": ""
    },
    "os_family": "Windows",
    "browser_family": "Unknown"
  },
  {
    "user_agent": "qBittorrent/4.3.9 ProgramUpdater (www.qbittorrent.org)",
    "os": [],
    "client": {
      "type": "mobile app",
      "name": "qBittorrent",
      "version": "4.3.9"
    },
    "device": {
      "type": "",
      "brand": "",
      "model": ""
    },
    "os_family": "Unknown",
    "browser_family": "Unknown"
  },
  {
    "user_agent": "CPUID",
    "os": [],
    "client": {
      "type": "mobile app",
      "name": "CPU-Z",
      "version": ""
    },
    "device": {
      "type": "",
      "brand": "",
      "model": ""
    },
    "os_family": "Unknown",
    "browser_family": "Unknown"
  },
  {
    "user_agent": "AIDA64",
    "os": [],
    "client": {
      "type": "mobile app",
      "name": "AIDA64",
      "version": ""
    },
    "device": {
      "type": "",
      "brand": "",
      "model": ""
    },
    "os_family": "Unknown",
    "browser_family": "Unknown"
  },
  {
    "user_agent": "HandBrake Win Upd 1.4.2 2021100300",
    "os": {
      "name": "Windows",
      "version": "",
      "platform": ""
    },
    "client": {
      "type": "mobile app",
      "name": "HandBrake",
      "version": "1.4.2"
    },
    "device": {
      "type": "desktop",
      "brand": "",
      "model": ""
    },
    "os_family": "Windows",
    "browser_family": "Unknown"
  },
  {
    "user_agent": "Mozilla/4.0 (CCleaner, 5.86.9258)",
    "os": [],
    "client": {
      "type": "mobile app",
      "name": "CCleaner",
      "version": "5.86.9258"
    },
    "device": {
      "type": "",
      "brand": "",
      "model": ""
    },
    "os_family": "Unknown",
    "browser_family": "Unknown"
  },
  {
    "user_agent": "Microsoft Edge Update/1.3.153.47;winhttp",
    "os": {
      "name": "Windows",
      "version": "",
      "platform": ""
    },
    "client": {
      "type": "mobile app",
      "name": "Edge Update",
      "version": "1.3.153.47"
    },
    "device": {
      "type": "desktop",
      "brand": "",
      "model": ""
    },
    "os_family": "Windows",
    "browser_family": "Unknown"
  },
  {
    "user_agent": "Bose Music/16654 CFNetwork/1240.0.4 Darwin/20.5.0",
    "os": {
      "name": "iOS",
      "version": "14.6",
      "platform": ""
    },
    "client": {
      "type": "mobile app",
      "name": "Bose Music",
      "version": ""
    },
    "device": {
      "type": "",
      "brand": "Apple",
      "model": ""
    },
    "os_family": "iOS",
    "browser_family": "Unknown"
  },
  {
    "user_agent": "Mozilla/5.0 (iPad; CPU OS 10_3_2 like Mac OS X) AppleWebKit/603.2.4 (KHTML, like Gecko) Mobile/14F89 [FBAN/GroupsForiOS;FBAV/48.0;FBBV/40069465;FBRV/0;FBDV/iPad3,4;FBMD/iPad;FBSN/iOS;FBSV/10.3.2;FBSS/2;FBCR/;FBID/tablet;FBLC/pt_BR;FBOP/5]",
    "os": {
      "name": "iOS",
      "version": "10.3.2",
      "platform": ""
    },
    "client": {
      "type": "mobile app",
      "name": "Facebook Groups",
      "version": "48.0"
    },
    "device": {
      "type": "tablet",
      "brand": "Apple",
      "model": "iPad 4"
    },
    "os_family": "iOS",
    "browser_family": "Unknown"
  },
  {
    "user_agent": "BBCNewsUKWatchApp/4.3.0 (Watch1,2; watchOS 3.2.2)",
    "os": {
      "name": "watchOS",
      "version": "3.2.2",
      "platform": "ARM"
    },
    "client": {
      "type": "mobile app",
      "name": "BBC News",
      "version": "4.3.0"
    },
    "device": {
      "type": "wearable",
      "brand": "Apple",
      "model": "Watch 42mm"
    },
    "os_family": "iOS",
    "browser_family": "Unknown"
  }
]