[
  {
    "user_agent": "AppleCoreMedia/1.0.0.15F80 (HomePod; U; CPU OS 11_4 like Mac OS X; fr_fr)",
    "os": {
      "name": "iOS",
      "version": "11.4",
      "platform": ""
    },
    "client": null,
    "device": {
      "type": "smart speaker",
      "brand": "Apple",
      "model": "HomePod"
    },
    "os_family": "iOS",
    "browser_family": "Unknown"
  },
  {
    "user_agent": "Dalvik/2.1.0 (Linux; U; Android 5.1.1; AEOBC Build/LVY48F)",
    "os": {
      "name": "Android",
      "version": "5.1.1",
      "platform": ""
    },
    "client": {
      "type": "browser",
      "name": "Android Browser",
      "version": "",
      "engine": "WebKit",
      "engine_version": ""
    },
    "device": {
      "type": "smart speaker",
      "brand": "Amazon",
      "model": "Echo"
    },
    "os_family": "Android",
    "browser_family": "Android Browser"
  },
  {
    "user_agent": "Mozilla/5.0 (Linux; Android 5.1.1; AEOKN Build/LVY48F; wv) AppleWebKit/537.36 (KHTML, like Gecko) Version/4.0 Chrome/59.0.3071.125 Safari/537.36",
    "os": {
      "name": "Android",
      "version": "5.1.1",
      "platform": ""
    },
    "client": {
      "type": "browser",
      "name": "Chrome Webview",
      "version": "59.0.3071.125",
      "engine": "Blink",
      "engine_version": ""
    },
    "device": {
      "type": "smart speaker",
      "brand": "Amazon",
      "model": "Echo"
    },
    "os_family": "Android",
    "browser_family": "Chrome"
  },
  {
    "user_agent": "Echo/1.0(APNG)",
    "os": [],
    "client": null,
    "device": {
      "type": "smart speaker",
      "brand": "Amazon",
      "model": "Echo"
    },
    "os_family": "Unknown",
    "browser_family": "Unknown"
  },
  {
    "user_agent": "Mozilla/5.0 (Linux; Android 7.1.2; AEOCH Build/NS6548; wv) AppleWebKit/537.36 (KHTML, like Gecko) Version/4.0 Chrome/92.0.4515.115 Mobile Safari/537.36",
    "os": {
      "name": "Android",
      "version": "7.1.2",
      "platform": ""
    },
    "client": {
      "type": "browser",
      "name": "Chrome Webview",
      "version": "92.0.4515.115",
      "engine": "Blink",
      "engine_version": ""
    },
    "device": {
      "type": "smart speaker",
      "brand": "Amazon",
      "model": "Echo Show 8"
    },
    "os_family": "Android",
    "browser_family": "Chrome"
  },
  {
    "user_agent": "Mozilla/5.0 (Linux; Android 7.1.2; AEOCW Build/NS6543; wv) AppleWebKit/537.36 (KHTML, like Gecko) Version/4.0 Chrome/88.0.4324.152 Safari/537.36",
    "os": {
      "name": "Android",
      "version": "7.1.2",
      "platform": ""
    },
    "client": {
      "type": "browser",
      "name": "Chrome Webview",
      "version": "88.0.4324.152",
      "engine": "Blink",
      "engine_version": ""
    },
    "device": {
      "type": "smart speaker",
      "brand": "Amazon",
      "model": "Echo Show 8"
    },
    "os_family": "Android",
    "browser_family": "Chrome"
  },
  {
    "user_agent": "AirPlay/540.31",
    "os": {
      "name": "iOS",
      "version": "",
      "platform": ""
    },
    "client": null,
    "device": {
      "type": "smart speaker",
      "brand": "Apple",
      "model": ""
    },
    "os_family": "iOS",
    "browser_family": "Unknown"
  }
]